564056 756799 509
119446 92831 354
662742 670323 442
864038 906596 445
775900 174231 509
821009 598966 509
7362 568685 470
991753 538844 525
781103 701430 504
359881 886585 525
871391 14032 525
853907 454301 525
622936 490575 470
809099 46604 509
116211 349859 443
597381 326549 470
627399 140688 509
386586 212223 443
217082 893924 525
386231 526783 470
646086 450551 509
320565 267365 407
864454 503428 525
913646 647698 525
333720 599323 470
979170 579733 525
854249 605442 525
786478 921482 525
219221 387216 443
127945 711658 509
10558 829658 509
50171 730553 509
397193 835301 509
866990 884580 432
540565 383383 470
304652 491479 449
56641 855904 525
37591 380217 443
834347 749637 468
626703 894772 525
485731 818978 509
331221 422113 449
222775 739434 509
960654 611072 525
541012 233358 470
329563 653514 509
574887 922178 525
538648 887130 525
57601 443579 449
429278 403605 449
817790 598746 509
551417 382148 470
251631 180276 443
867684 562753 525
560750 525408 452
251746 525558 470
410179 301501 449
416984 93251 449
437130 140624 449
644240 645481 310
498622 632345 509
150714 626542 509
295422 636700 509
24378 299439 443
60929 545776 470
402217 474237 449
877918 314685 525
883549 330415 525
901020 638222 525
458054 330037 449
437839 307144 449
386856 650260 509
917288 735588 525
442346 496349 444
891082 781684 525
982882 406502 525
450752 719067 509
46197 353147 443
395886 499456 449
871429 744277 525
791129 110435 509
964776 685469 525
393767 869848 525
70095 765497 509
117985 741631 509
909916 319414 525
120877 853342 525
326478 916772 525
440565 123957 449
549036 347774 470
481011 95722 449
279048 482694 449
257771 384174 441
734454 698899 504
284467 707611 509
700424 322539 509
130985 416817 449
547849 638564 509
266607 573615 470
486699 57315 449
938079 825965 525
689259 694868 442
459115 587086 470
336020 75410 443
433915 724896 509
17876 910147 525
521594 273837 470
208236 866139 525
237459 917873 525
103696 297584 443
298786 637731 509
835334 63347 509
17024 876712 525
244902 450266 449
903586 538427 525
673060 160384 509
806753 797998 406
81698 789423 509
804052 516407 509
988531 410642 525
786989 155644 509
166392 707564 509
201585 353688 443
387781 396410 436
283869 436935 449
241616 861261 525
788942 179441 509
156827 312486 443
582672 235146 470
728259 189920 509
902053 217121 525
497793 269922 449
959902 94993 525
30115 529173 470
236697 317396 407
996392 498214 525
735697 588968 509
512941 150989 470
949797 418799 525
518856 929623 525
454471 148305 449
892722 258158 525
256172 738705 509
860342 980276 507
705836 101424 509
23731 410292 449
466324 205534 449
189050 544446 470
422333 895173 525
648499 616483 509
109378 563968 470
277605 286639 389
399397 989472 525
408268 742599 509
12928 943468 525
727062 476275 509
700664 513645 509
794735 361129 509
479882 76336 449
120036 254924 443
911610 744202 525
941913 230444 525
696941 696598 336
86874 413557 449
815043 933736 525
570250 22338 470
785794 143241 509
731564 324584 509
546502 681525 509
524280 30999 470
579328 96983 470
271956 242843 407
637325 110871 509
162094 294180 443
438644 882495 525
360704 875008 525
992827 677784 525
427476 497889 444
59297 68327 335
229792 827286 509
277983 600124 470
108333 677459 509
268856 221851 443
283832 288252 376
9292 968820 525
826883 931379 525
542783 396813 470
44618 531637 470
755295 614746 509
165317 529989 470
704492 870799 525
998116 565741 525
469256 167425 449
955027 162464 525
274035 438103 449
381123 846179 525
244239 479410 449
337237 365409 441
455881 808292 509
265519 194904 443
187290 381757 443
961324 382252 525
883692 456473 525
554677 698399 509
395465 269309 441
599708 556419 434
821561 363755 509
901362 634834 525
634042 411250 509
512705 281636 470
448299 402413 449
458728 526121 470
821065 964875 525
147318 990894 525
127917 997511 525
344701 137717 443
164556 48879 383
221144 861335 525
368548 262137 441
460297 18680 449
536320 363696 470
34126 53973 340
88086 176080 383
975622 469024 525
889865 501591 525
205287 896776 525
900450 852532 445
784773 872215 525
492900 88246 449
90875 813170 509
791417 766352 468
617845 212879 470
675139 51387 509
45658 222637 386
920958 390434 525
406507 877255 525
112030 895693 525
98358 417440 449
596416 844499 525
63898 927559 525
907829 639548 525
149309 843956 525
282177 633768 509
681142 464379 509
639172 193560 509
520139 118377 470
340210 856364 525
928218 855413 476
580633 659852 509
930540 213332 525
