711688 985026 525
61181 871887 525
338557 469858 449
88235 120945 354
177894 908441 525
573298 839855 525
907734 610549 525
302466 701505 509
690957 930400 525
401326 667186 509
858173 601712 525
400172 523740 470
149637 659909 509
829130 802669 450
538414 25143 470
375725 108433 443
822106 446770 509
172687 162991 352
948021 47407 525
17977 334254 443
735023 155662 509
349900 382223 423
870493 779085 525
616646 322893 470
410509 617887 470
555235 552917 421
959710 770983 525
277036 746929 509
396561 339299 441
388233 985632 525
257771 262851 345
712591 39691 509
263664 431580 449
859969 783058 525
968857 951846 414
283882 10589 443
525435 820481 509
565684 612503 434
870504 758877 525
556860 494182 470
139152 412500 449
345339 970389 525
750310 239950 509
176560 888335 525
466250 657035 509
781667 346069 509
285874 186630 443
496847 150679 449
560318 320736 470
804440 95663 509
881514 464217 525
476662 804712 509
599216 605265 403
143287 776805 509
237716 117205 443
938342 186332 525
119447 547937 470
343087 400381 441
112439 476599 449
672113 743886 504
587453 120843 470
322562 979598 525
455628 339193 449
402074 342204 441
765691 875879 525
610739 378953 470
442969 406562 449
172859 409723 443
310177 505868 449
501363 41454 449
165598 82454 383
628344 447911 509
91393 470331 449
503494 37871 449
815598 123074 509
833451 954559 525
491239 400068 449
62737 977843 525
24730 680623 509
597993 486227 470
814960 813619 344
664807 902064 525
356338 124480 443
978081 944479 458
988231 823318 525
889179 547492 525
67464 896942 525
207283 784504 509
325676 258388 407
136842 163437 383
393326 616196 470
882702 901856 445
187072 811522 509
314534 434828 449
534849 396155 470
787726 871457 525
262061 129092 443
615609 390224 470
24664 91059 351
670341 565890 509
369028 700397 509
780671 589958 509
71927 588860 470
244373 26815 443
816925 149171 509
927860 601463 525
759509 754053 362
831450 739989 468
333552 97826 443
997151 379543 525
343265 69437 443
756991 11988 509
942799 19142 525
889644 750144 525
895942 740353 525
961804 961219 295
624937 809806 509
863686 277214 525
400937 221004 443
493049 816237 509
423029 481763 444
864507 641793 525
118567 898578 525
919584 578061 525
322634 240567 407
759667 605864 509
285673 519856 470
103738 581386 470
622056 529546 452
139433 789846 509
68595 74781 325
946678 28856 525
379815 88618 443
407220 483823 449
355069 163390 443
273351 479010 449
118188 944443 525
794543 779157 437
667735 200681 509
496856 442232 444
850880 691995 525
811196 847725 525
188900 998702 525
465518 969378 525
305337 419273 449
952712 192546 525
284998 499496 449
680301 230056 509
158497 882466 525
664370 980373 525
416161 774437 509
3260 922525 525
584868 240120 470
223096 920611 525
186030 892601 525
354941 153972 443
534457 474018 470
830724 926186 525
346170 785536 509
865115 549177 525
684279 990174 525
698719 984010 525
243736 955822 525
278359 124496 443
589840 797325 509
96081 533989 470
77768 618711 470
855991 171444 525
419996 875833 525
261561 155822 443
694049 290611 509
372161 606570 470
925518 40093 525
17393 2325 276
531320 978337 525
360408 135807 443
756365 234879 509
95799 387245 443
828898 592298 509
323419 782438 509
430465 309520 449
660611 736075 504
610907 83261 470
660565 996431 525
162840 541282 470
483214 448318 444
524377 148281 470
439363 628639 509
769331 702109 504
120778 411476 449
264021 298104 407
799197 384701 509
548577 596446 434
465585 616070 470
257188 900330 525
174742 992610 525
798840 239861 509
883584 316773 525
234191 764780 509
783316 963239 525
436668 374854 449
707288 586544 509
494112 797975 509
607615 330019 470
639325 358349 509
920341 415409 525
795950 842963 525
310501 446487 449
679045 166870 509
733173 186216 509
423097 419185 356
220167 365111 443
665475 659159 442
311674 50974 443
15319 656389 509
28493 90094 351
267401 206114 443
951622 914636 507
790417 989534 525
569484 834002 509
198872 234019 443
135511 824795 509
722195 455138 509
410480 976120 525
217615 296386 443
341497 259950 407
681518 433555 509
479001 788220 509
484671 809145 509
579810 644329 509
1268 486240 449
104058 501203 449
262575 504834 449
83167 780986 509
125413 991893 525
504550 240229 449
480117 963872 525
403887 426373 449
718123 863681 525
66615 734948 509
514331 953539 525
917290 278262 525
307459 146781 443
436912 792171 509
604100 934026 525
650838 940888 525
229727 684513 509
759207 271190 509
671844 350767 509
912678 818369 525
690621 664732 442
376777 536456 470
978985 2896 525
555387 308654 470
486702 441864 444
857785 948554 507
479514 953224 525
580895 366692 470
560894 400482 470
67273 82760 351
810557 400340 509
629496 641752 416
701730 447531 509
443889 219782 449
999352 882937 507
695409 61138 509
923143 828325 525
