253475 496156 449
752728 341398 509
577670 604270 434
646643 216283 509
807944 294367 509
550633 441557 470
783160 589976 509
41547 669264 509
819919 589482 509
327319 481735 449
358580 242662 441
728936 606720 509
607097 999892 525
183709 642076 509
221187 646670 509
836210 689621 504
75738 687883 509
437742 114368 449
306824 9823 443
166094 820065 509
558862 135691 470
765871 886114 525
894886 135699 525
210832 62099 383
669452 862243 525
819420 310944 509
834884 805287 450
862250 471577 525
999411 4932 525
591286 984401 525
285351 583408 470
73311 284719 443
902097 977221 507
632162 744686 504
384982 839049 525
190462 650073 509
951039 833484 525
938511 835119 525
944694 85602 525
583873 839782 525
455505 893260 525
58464 908370 525
358496 397280 436
331811 781512 509
817119 702449 504
840983 410015 525
144744 923979 525
373649 85275 443
5020 441444 449
893433 264263 525
796732 316499 509
962161 530309 525
917785 80381 525
319356 361259 441
41792 748024 509
120809 989790 525
828827 427907 509
742573 742842 318
202630 139783 383
892381 741338 525
312833 964369 525
186319 623505 470
143789 89130 375
122488 710260 509
827123 853915 525
557433 281180 470
428972 465869 444
154220 787105 509
159804 507935 449
76739 587644 470
47523 953241 525
319513 887099 525
957642 514595 525
63069 216840 386
987797 887912 507
681158 824893 504
541599 720030 509
732845 925943 525
983654 820183 525
364590 369655 361
736192 188508 509
321586 965681 525
816460 650248 504
464377 547194 470
156340 598436 470
814044 48539 509
336784 722765 509
187518 787809 509
842196 635509 525
970751 40628 525
341086 771046 509
195757 855173 525
322762 397272 441
779468 377122 509
632480 230100 509
338923 735910 509
790787 186634 509
808499 99663 509
900917 775803 525
757714 271454 509
776189 782741 437
642897 922456 525
774481 812813 468
224319 825508 509
512904 131101 470
671851 493224 509
80566 71775 351
384297 547133 470
111318 482787 449
604667 273093 470
323858 898476 525
872392 417666 525
341192 863557 525
357651 155327 443
143969 698879 509
704546 791254 504
54244 865131 525
265639 105690 443
328130 37531 443
400877 3980 443
187977 439986 449
286129 512973 470
543156 87947 470
101122 47788 351
932617 634035 525
114042 554077 470
902666 6346 525
161499 732900 509
409911 118250 443
441899 261006 449
731978 835423 468
576233 929355 525
357311 676264 509
737826 747425 424
946137 673628 525
658532 960112 525
870011 217546 525
704584 396092 509
696804 229822 509
752866 919987 525
735602 111380 509
278055 426992 449
387490 392655 436
793725 421225 509
221067 608344 470
429873 41747 449
34399 570404 470
770587 486698 509
474238 463419 413
535861 455758 470
899076 790870 525
183401 74521 383
750920 514994 509
232408 364913 441
950335 78896 525
278178 985025 525
705141 824 509
363751 462101 449
880843 253729 525
683948 223121 509
82439 195260 383
806823 11751 509
62111 715421 509
970471 852194 507
166283 249062 443
343605 577096 470
927909 498373 525
199122 996041 525
501843 619902 470
866493 564885 525
429092 170301 449
291213 160275 443
21591 885100 525
982363 12272 525
391659 896025 525
653553 764476 504
770148 20882 509
191696 831875 509
900457 252359 525
668855 726649 504
889163 978399 507
466354 548111 470
879312 17559 525
580244 52758 470
877747 241267 525
68359 1893 340
953971 131695 525
983593 125524 525
968133 414958 525
857290 329332 525
588963 679132 509
783994 734396 468
717677 916704 525
832016 449902 509
224407 230001 368
491657 466018 413
577046 843153 525
162757 256460 443
527455 812484 509
708743 825342 468
110615 348776 443
957616 5066 525
738447 731537 424
353239 298422 441
639597 187025 509
711108 856693 525
400015 104684 443
180824 903913 525
630120 609789 509
916731 94888 525
651504 967853 525
111501 926515 525
1993 923359 525
75476 402089 443
275992 763883 509
269908 939644 525
564361 367521 470
864918 628923 525
118130 877624 525
838738 752095 525
463819 164035 449
141289 1174 354
668722 190075 509
138686 72878 354
180722 377244 443
607876 170285 470
557858 462323 470
583333 720400 509
294073 525799 470
879008 293700 525
380009 731308 509
750551 527883 509
527177 624311 452
100429 696927 509
233498 640951 509
850679 604362 525
434 860375 525
177923 269496 443
769679 204297 509
489687 929604 525
622460 240147 470
173011 859228 525
894082 428094 525
80816 626061 470
821075 854181 525
624865 58086 470
378265 803807 509
694408 538688 509
850045 333641 525
634436 425982 509
