139797 524132
820282 836091
551919 393887
443388 77263
648307 827710
952839 598639
509870 868228
786375 780384
704022 217475
616753 909858
609893 361595
628030 931567
976607 820468
705916 145720
515319 360302
927319 313064
221205 535544
707919 355113
423361 111066
846416 726586
268579 756359
490286 580811
459213 900562
740220 49046
585870 790485
209090 311124
322411 603329
356133 647499
83752 931639
828216 331757
486229 80100
357386 47800
95770 392099
987575 497405
500905 258552
533200 1520
705636 552309
208525 192620
201453 978527
309049 345645
848274 234716
674800 501474
870880 933744
420317 299594
860381 958876
77217 355565
659545 292050
862633 94083
406297 384843
260451 179876
811481 826217
482146 76373
954964 401895
660145 806035
498436 637341
819050 686419
233749 569602
768657 672500
312422 802850
67617 948474
334915 868294
117702 581202
717560 531180
266025 372656
400528 965941
516194 530174
11984 655118
79274 411022
61566 458482
531546 391705
600611 545879
788452 862679
57032 790636
452730 455539
629534 779911
349648 872464
708833 814230
223359 106662
282835 140492
635786 417714
178214 191062
83093 157202
292590 786130
224660 427676
679534 97346
905630 601970
462854 667803
346461 930070
77156 936758
471577 817181
258403 527071
854058 869345
541234 19122
164477 471883
759017 57093
329342 491163
188185 411763
828274 671619
530081 58578
688883 437632
881620 420562
774496 103869
210288 672696
902209 947824
619516 407738
177441 204783
867233 22993
685969 808117
183413 903397
345641 616754
421660 848327
287270 946879
975421 217870
607896 456351
691160 958871
719470 818030
218805 11879
802139 162145
854102 597197
63703 968022
947943 531555
605446 941968
384560 36490
699423 430754
463431 465351
193430 89127
759041 997908
577240 844962
178123 629863
967346 687098
485777 719133
897340 438616
29871 941608
337145 472255
257370 756130
806765 274850
886774 381783
798791 874140
277575 850157
978829 403960
620683 911031
794109 502817
62989 442054
187961 815997
774778 541255
91436 602842
270445 665838
243251 338496
969 21505
675381 243379
350876 903638
893977 873858
692918 844973
383948 263986
80443 234004
570405 620932
490468 534121
781323 245618
269696 355619
73129 175312
581238 410980
4594 26357
201562 818441
574245 652894
975189 309652
572697 531425
598930 644318
543633 231215
177934 938036
395853 936990
172626 669089
463628 753113
938563 845820
473797 437305
50544 188224
445369 287234
997783 205771
21064 134710
638730 738012
110094 789912
12136 865338
7616 822039
715188 94352
348677 262969
80093 375623
353104 676936
807198 821153
822675 51953
545789 954731
263030 137645
152922 950394
320181 179347
6194 592546
445098 479779
798079 625869
329742 857286
697492 753947
194033 863610
628477 792640
445650 574306
686453 387513
583157 871416
389172 264248
467871 400664
542584 196739
250987 804404
991047 749688
309886 406752
416825 380790
521153 258750
655583 672207
77753 339145
702592 301836
843910 750282
698610 861932
933641 948805
704930 785993
797520 407342
3814 454373
607131 615979
993572 14894
137797 1355
486784 576831
667572 166322
365670 214935
634087 834634
100382 654738
920759 22768
593993 601221
679968 254957
182210 419962
543223 87698
386366 283240
916948 816448
194968 953108
817410 999913
232136 89297
359449 356283
160469 341850
581038 660960
61436 516749
759352 506769
338103 787319
753899 175341
893043 265058
198386 412309
948529 240582
555406 599127
896599 58703
146639 670804
