568351 112880 470
204645 441039 449
142703 972427 525
705983 542614 509
700277 339711 509
964853 434479 525
799454 436130 509
396007 394609 405
698471 15635 509
672381 401919 509
243918 705255 509
207836 368464 443
751920 208759 509
612017 730914 509
815451 548709 509
788050 144688 509
241079 196376 443
964907 451498 525
55292 542459 470
467123 315768 449
700962 38617 509
943660 492017 525
410405 631118 509
406640 716477 509
410258 291429 449
798421 43932 509
208663 416436 449
127836 766345 509
901273 852309 445
295086 990427 525
530420 243526 470
122920 14766 354
410962 413752 374
944310 251555 525
462354 945380 525
870049 246663 525
826436 431099 509
183421 663591 509
991888 662926 525
786852 76022 509
720147 792147 468
662503 514530 509
835619 872624 525
158992 368754 443
913238 402966 525
239505 16742 443
186340 974072 525
329117 882387 525
943332 591340 525
437476 956079 525
429446 400553 449
219575 611247 470
690231 388845 509
148578 873543 525
818116 195467 509
395435 468348 449
214694 476907 449
132060 338470 443
669270 697862 442
926210 634272 525
422560 688506 509
788824 308138 509
613412 779312 509
790005 534464 509
682221 27851 509
366354 598713 470
916622 632279 525
147415 369262 443
58611 14188 340
22419 275768 443
114149 925383 525
438293 442925 400
94980 767739 509
144371 954487 525
273449 549502 470
447496 915056 525
895892 209150 525
807823 550 509
78154 422520 449
837339 574129 509
161337 462950 449
524211 433007 470
420382 584279 470
698424 204807 509
134560 687973 509
506926 865454 525
570793 673407 509
502116 826160 509
126380 493242 449
126236 178884 383
910370 901817 476
471438 528910 470
675440 198089 509
142774 142048 375
874294 562412 525
469787 575799 470
607297 321303 470
910957 822929 525
441054 466575 444
278951 958050 525
103828 882593 525
710601 340311 509
784608 620590 509
301097 684807 509
928447 120572 525
913861 518657 525
416325 847804 525
325689 18116 443
660757 480005 509
339283 463457 449
983499 22223 525
878481 425548 525
459208 74334 449
659416 130683 509
36075 519271 470
215382 793113 509
89723 472952 449
243736 982299 525
548545 446756 470
480183 280467 449
944904 747974 525
265257 785421 509
215039 808211 509
354603 487545 449
315151 503771 449
134266 730950 509
11672 453328 449
236334 479368 449
313386 628138 509
882226 118509 525
460261 217988 449
393264 256223 441
290762 54988 443
445509 624654 470
221389 897438 525
803625 419166 509
82852 632667 509
325768 136545 443
972752 55857 525
817102 668188 504
146747 35084 375
186255 140512 383
220310 967281 525
350010 691818 509
683790 249075 509
381368 283509 441
59828 837365 509
89899 959418 525
922348 670903 525
463077 37487 449
699833 511083 509
67245 291618 443
997798 844996 507
617873 652992 509
222232 216380 355
215067 356030 443
870127 215253 525
285089 482340 449
304742 460824 449
267845 434441 449
308065 218265 443
473972 16627 449
400993 986173 525
663505 33394 509
298372 412627 449
421390 919176 525
541180 719114 509
645050 52266 509
636404 779975 504
908130 853276 445
66496 385584 443
583146 801985 509
934629 618311 525
125636 347621 443
910871 416065 525
602540 487322 470
110273 253040 443
233892 287414 407
222353 787888 509
41016 729366 509
911868 691866 525
348011 918133 525
919133 33192 525
909316 57498 525
52565 887550 525
366741 540909 470
181541 761092 509
133004 369181 443
192650 100513 383
621576 928969 525
511186 883878 525
270650 726752 509
714330 65084 509
681872 297516 509
204386 244395 443
495348 624175 470
986415 150064 525
54251 562950 470
764288 448264 509
430776 590104 470
808989 252803 509
141899 400812 443
