116736 440114
656868 803960
372789 25638
383449 501963
473536 417540
877092 744832
204583 219156
725101 445724
205767 496086
262206 105392
878120 846934
446864 939044
933836 250346
17579 599481
982989 960156
356854 148676
803814 692308
483542 186449
58840 561546
273308 209761
606933 280624
841453 226440
218074 672649
526932 335740
348728 491750
703616 365304
232512 744802
179646 737556
405219 647281
282879 556758
325274 942704
841142 360870
998647 521464
465709 227618
885588 799794
902377 520259
71651 724467
9888 21938
70114 256295
513941 184920
492939 638520
633741 548604
819911 528329
449213 234816
256114 231805
953091 699625
611484 209365
498801 866284
801435 920581
930860 818018
223330 868765
923896 804236
481564 711860
190017 653312
420388 466391
522267 371152
885293 930538
971033 458962
504912 344181
212576 655731
470565 297628
171384 265622
997208 553983
278192 29003
469123 372061
149997 535219
643958 3184
51835 307748
724894 731904
429422 573504
253206 18302
683676 854895
933998 618332
162600 625529
805019 612561
117095 337721
802389 823394
580123 178113
113982 765319
18018 50895
570511 935134
82775 262388
332742 679518
827470 730594
274872 219061
806123 945888
844280 716780
94567 969463
653010 656133
331760 791324
829221 146114
109719 108673
837715 234149
934086 812081
92532 185865
952097 11305
598386 325697
715502 787846
191106 99475
780505 907384
747177 3626
128186 783866
224641 112466
761545 502391
980028 200186
488728 416333
677420 947556
437504 116040
165746 116630
55608 524357
582716 830366
900569 925568
599415 580920
929612 977
527308 119671
442842 163660
935827 999530
515363 106445
879932 403107
37 286681
853478 452914
891838 462148
548608 167682
875397 731727
479063 573028
442629 964836
711079 309941
750409 444440
86469 131029
567190 835408
270600 594233
345125 489083
176921 356758
225003 295000
626970 104744
281590 131570
828585 490899
446319 543850
31771 676112
962703 129684
801556 648601
622282 452284
55615 450320
129797 141848
910846 294783
829680 965463
639838 916969
699749 806237
919160 862121
716722 971653
447759 537859
537785 492147
334526 435299
693048 215781
39523 395957
304429 793423
641223 252674
835733 639805
772098 356571
446686 708828
687766 117856
389246 454585
809780 572771
853494 739467
816070 478207
757058 162594
347196 174582
284914 306430
105776 989454
209508 832272
280782 288131
146695 19107
846225 787403
926257 731144
348656 181285
211949 801433
787595 249209
286729 999182
769887 514164
705189 618665
982870 83722
432745 782689
705773 128520
329482 184907
440073 991921
200040 805167
3017 17493
831697 557616
82392 252697
896506 951976
271825 293602
429433 611882
711695 790339
754704 522522
880215 465190
241860 376472
55159 630614
124144 752116
219088 815120
664521 467438
412796 240658
295385 374633
888515 622547
706347 79386
121616 764889
846194 264297
245067 550019
481114 770401
714479 527831
890114 620812
683288 573784
169869 65855
523476 314879
601627 91087
775586 14490
147158 296363
381988 651236
795393 729247
839665 486190
145990 627681
996983 577626
144257 605952
88140 69153
460201 18405
12182 852555
463341 669459
234575 64082
161563 865303
123586 23718
9124 326862
978015 735664
777017 55548
974530 566337
491003 775420
555143 204287
943090 248436
194365 767011
478430 499400
457795 963039
286666 996805
136104 307964
705833 715083
257372 597485
334527 310113
5730 108073
234726 225394
741341 67350
718519 231304
718317 247715
113730 223516
788073 155443
417093 790224
378044 719220
332101 297394
