226873 925531
496133 615098
701804 878302
302709 629553
408897 781397
189639 463200
798299 675802
564334 812801
310570 901791
122988 119418
545378 59072
861331 279761
491217 22390
83523 677166
231071 916716
65733 375344
968882 977647
985324 478182
216560 231031
761752 730674
813699 881220
291157 931735
925305 524527
850992 995901
534438 533974
706376 891870
192990 702134
247791 422477
969137 235095
624935 818466
903059 898940
421352 929159
682873 414824
362698 387923
194203 760392
116736 74866
552754 263589
147417 961527
556186 876465
891221 146853
709425 240155
976988 651500
563179 831976
434644 869278
672678 919911
192940 812422
666270 539225
810613 499349
375882 176267
244360 213444
802032 147585
536990 834441
236544 395814
825251 140167
711823 270447
979391 743083
29629 936292
635271 347121
130412 407417
24843 224613
582943 249263
236210 990246
477079 313976
814322 44852
812458 179698
346140 202513
542035 970053
464256 201835
569468 976147
705566 116325
685165 912740
86516 177533
698392 203191
262172 504033
251905 18187
305313 369076
767873 502720
117137 849904
702447 200966
673130 588983
266938 522426
528018 428387
174563 212068
643045 60962
892598 521590
304053 541773
626917 646133
956917 71726
380114 307480
975383 559068
908464 627709
249569 157432
623823 957828
796720 412054
919441 28591
291247 39225
603479 519410
523660 201633
313851 14308
969930 755514
31023 563143
334874 509199
275360 83823
997971 548235
130233 131342
651425 567996
725901 17839
494382 85318
451615 161070
363641 127123
312643 923505
456946 551679
843319 220809
898787 919874
456341 804904
136667 528557
142243 476899
234116 436816
504948 290093
429659 343083
888114 872595
573615 644883
786512 8007
887522 941794
351328 54428
703581 647896
490307 65485
456353 749079
700111 293024
358856 489465
571750 490128
935198 511139
501 265455
689911 212895
356418 534104
206168 598521
537522 259089
649286 784076
12961 597903
285622 355810
365730 729359
498188 552841
562608 482784
142832 138830
816361 916174
826562 353534
59930 325257
922859 582793
541242 706334
523210 8128
870735 354292
125509 145918
928193 23358
905918 788568
597850 646238
318999 817488
559816 340936
299521 16689
296941 861201
68974 21039
264344 594163
967722 731759
215984 167467
206798 40538
235637 769302
375605 881285
19029 752357
256881 892173
765469 369374
740827 392076
987032 592662
422534 971173
927959 875160
945456 311573
893229 968695
709885 580206
518621 582124
261205 253713
423986 575567
68614 963937
729214 205390
919427 424368
247454 153926
793674 370462
174837 610543
378942 892181
248350 999471
816246 186417
42078 920763
83191 468201
328498 526756
459566 556475
797425 630016
69729 680937
891826 312445
652268 87299
715857 681459
459924 67647
557912 190795
729509 727685
490703 687960
40823 470274
255886 246566
766614 45484
579618 160729
369603 640816
878231 236886
854129 40154
283652 702275
316504 530480
549637 776590
885413 760687
396638 652319
868809 14668
755951 539253
525815 747732
492828 448486
735658 729516
120694 831891
815103 498822
772266 726222
388902 879211
945661 139396
662526 727465
658336 254488
915643 747179
977008 736723
842557 428492
76552 605009
280392 830341
672344 384270
674191 180611
791297 74448
68836 241107
224125 452494
666731 189534
660068 174342
419894 123338
776194 117071
474537 941815
