520996 165257 470
930796 895845 476
451052 675657 509
946355 319049 525
480347 409135 449
145556 597122 470
941348 515387 525
459047 128218 449
562923 406962 470
318470 617992 470
465708 353860 449
404237 44319 443
875042 334457 525
834045 496345 509
93506 880283 525
945241 219876 525
547045 629055 509
786314 474260 509
732297 867559 525
967057 333918 525
328140 722073 509
691271 289891 509
284430 385344 441
214314 991468 525
324094 110005 443
801943 979959 525
799159 904068 525
947784 327443 525
47488 768385 509
908031 496989 525
563128 472420 470
362722 141214 443
276987 573969 470
908780 605406 525
908682 532376 525
961319 663726 525
302011 427094 449
550315 32939 470
728551 689641 504
933468 965166 507
389841 429182 449
878274 782955 525
409444 736481 509
145998 491104 449
138075 721878 509
743228 54691 509
422424 322247 449
82568 360796 443
162411 198925 365
614441 760147 509
832889 812300 450
323602 516845 470
838718 920213 476
885118 51207 525
417200 305209 449
345010 264920 407
891764 521133 525
892313 746140 525
814707 212343 509
809761 86207 509
317312 75608 443
27719 740487 509
915941 357542 525
587299 595966 403
143419 684303 509
41277 807646 509
449366 237549 449
857389 248933 525
851466 878555 432
954643 604143 525
708218 664164 504
765232 313459 509
748301 62802 509
549253 740108 509
106742 160448 383
249962 186676 443
554349 321127 470
541757 598069 452
684828 725665 504
128550 627234 509
935856 123697 525
999928 532996 525
48434 445739 449
154848 726961 509
8768 459949 449
540150 565625 452
220382 380679 443
617381 803194 509
784404 926871 525
956348 313576 525
728081 974155 525
829662 94185 509
823533 431236 509
638249 29311 509
513066 98541 470
397899 6879 443
272250 543622 470
969034 838423 507
631733 596832 509
166011 206545 365
899111 404252 525
339462 151480 443
20334 808445 509
741236 231213 509
365073 430788 449
166101 610760 470
925243 919939 445
113741 549396 470
973486 352242 525
648225 521864 509
587453 107147 470
307563 294109 371
696304 332916 509
216189 395557 443
946878 564863 525
628913 464577 509
757376 590164 509
37314 547993 470
240046 106446 443
679121 745478 504
873928 371371 525
534620 955818 525
682408 665410 398
489021 981719 525
898813 65548 525
988983 945056 458
954825 765220 525
611815 818836 509
391528 173776 443
604427 379281 470
275035 1355 443
928162 830113 525
853003 911761 476
960253 372146 525
209752 865193 525
377939 574989 470
304218 412159 449
402846 302776 441
816072 3612 509
680101 363480 509
340348 316640 384
510044 291212 449
667246 308401 509
764748 381525 509
943183 967359 414
83277 548341 470
704544 529522 509
534337 900996 525
459942 135505 449
515534 108431 470
248142 43012 443
24924 119134 354
993179 978754 427
283920 113368 443
384408 76591 443
81473 455282 449
711547 932390 525
814334 861260 525
428449 192495 449
12285 908365 525
349282 953978 525
836776 346397 509
79961 966420 525
290405 822167 509
493985 292857 449
806949 153068 509
731639 947668 525
545214 667908 509
478421 574380 470
436831 901253 525
678479 194042 509
949135 17983 525
1133 543752 470
835594 503699 509
701286 521311 509
362254 334464 441
983662 794507 525
716901 684697 504
319106 639425 509
592365 765426 509
50891 975342 525
420064 437318 418
407683 424943 449
100484 821440 509
570419 791000 509
271807 793617 509
263320 987846 525
534010 1511 470
45441 916417 525
524988 47093 470
737247 650358 504
746921 300047 509
767353 313921 509
825062 952921 525
942440 693478 525
305390 966363 525
495404 571719 470
382961 536751 470
801283 123974 509
991666 489344 525
255326 561714 470
529996 649218 509
818752 298081 509
542270 790318 509
11130 62018 340
248368 127551 443
180827 866586 525
179292 322366 443
69059 380448 443
652700 178584 509
944144 134899 525
552082 56222 470
273301 271946 314
201767 655392 509
854515 467872 525
440690 599374 470
677837 509404 509
392404 843916 525
579744 93205 470
88721 650294 509
661170 695517 442
482518 108659 449
899995 874170 445
295371 416611 449
663897 912838 525
120332 383716 443
756571 411097 509
586178 791769 509
38735 707569 509
96123 412631 449
477106 871730 525
363635 330257 441
377942 877855 525
498161 275954 449
63636 866792 525
831795 268071 509
425923 178462 449
924536 508286 525
145912 316154 443
26915 178325 383
45820 386223 443
989181 689250 525
66784 736846 509
811107 123471 509
862485 983877 507
125617 418606 449
438930 367239 449
574531 236942 470
402936 881796 525
175959 711330 509
766506 168058 509
218556 211998 386
797088 931335 525
911727 866651 476
535629 710453 509
762716 337588 509
417043 825245 509
369569 756153 509
568805 582752 390
748356 645666 504
955686 996949 458
215346 37498 383
571415 833703 509
96250 768606 509
145106 666062 509
232467 536429 470
887262 80124 525
379287 757615 509
443599 486517 444
78000 365859 443
678689 954524 525
257789 790859 509
693295 443534 509
548375 238399 470
563765 552874 421
717376 17074 509
387643 675901 509
938949 840217 476
451097 509006 444
876586 171579 525
824103 551936 509
756770 323936 509
309869 619954 470
