543730 852462 525
244937 730075 509
710583 691691 504
57867 542501 470
486077 575239 470
367766 34212 443
354449 385997 423
308080 48701 443
351005 757532 509
690886 189324 509
826109 845103 525
510300 533346 470
428966 125600 449
186410 657208 509
36333 46806 314
616937 256302 470
798626 712980 468
846480 713901 525
813670 726103 468
927227 587999 525
233657 325036 407
378450 28972 443
488649 490313 351
296896 109368 443
974745 782477 525
405835 349555 436
111739 287857 443
895839 204362 525
341953 193957 443
440333 874837 525
289295 177920 443
604756 166578 470
491641 261046 449
934086 218946 525
230150 543717 470
613324 231859 470
575392 653906 509
724480 279875 509
977934 622945 525
369841 275071 441
498766 988373 525
770538 314941 509
463404 98253 449
92474 565334 470
876603 376422 525
561657 921043 525
791567 908866 525
813806 945676 525
88176 872366 525
531003 897294 525
276379 199231 443
528656 241185 470
896875 392929 525
91335 405406 443
843960 581215 525
122543 253577 443
981180 438100 525
549587 154865 470
812908 273390 509
262080 335074 407
358561 969986 525
226638 50685 386
230783 298388 407
730270 383353 509
724403 668619 504
816232 207880 509
832443 891575 525
426958 800668 509
292929 333615 384
53853 992412 525
499132 694957 509
16436 559875 470
460076 502646 444
846675 663160 525
315082 459678 449
847175 622189 525
307449 600929 470
12759 899418 525
475476 441594 444
418051 153494 449
273134 711745 509
655521 227566 509
622199 138997 470
614147 23517 470
641882 556236 509
453023 563791 470
97831 506241 449
731608 550853 509
932015 626737 525
954130 684659 525
641933 110820 509
232959 965927 525
630898 46660 509
219718 431874 449
911928 702483 525
412994 263009 449
502712 76569 449
781384 740302 468
539042 714342 509
28244 700462 509
405712 547837 470
600009 831290 509
921546 165655 525
936599 95160 525
184983 143639 383
197521 95395 383
495791 760822 509
26699 425376 449
877076 906787 445
304402 363409 441
646426 543745 509
653729 623097 509
580135 318751 470
219863 192322 386
764129 345571 509
5567 68023 340
315216 232222 407
608417 484613 470
595651 816085 509
436720 20379 449
544014 583513 452
700022 987931 525
627209 940188 525
667753 730079 504
970367 857065 507
859299 32733 525
706806 423317 509
750301 165196 509
885862 763526 525
63795 208976 383
790429 702870 504
205360 488936 449
371428 954051 525
631595 374380 509
862604 168351 525
746907 305800 509
566673 593652 434
341592 823050 509
574883 755521 509
908751 850971 445
839699 468899 525
659559 965162 525
234580 793064 509
523242 873692 525
718543 325867 509
591661 994472 525
485052 413553 444
478250 436338 444
873702 874959 388
102129 352508 443
359924 479548 449
29773 133152 354
748191 231472 509
361513 597501 470
911789 3243 525
308615 58984 443
652521 239735 509
773779 50646 509
20616 655354 509
397617 153242 443
908890 139087 525
100716 486107 449
907860 478194 525
369583 636030 509
632530 454367 509
239022 748531 509
198069 296546 443
636322 460812 509
855145 692816 525
868161 245837 525
141430 143235 375
53097 503395 449
776230 944153 525
777134 80625 509
405502 667912 509
682860 577253 509
320812 952445 525
588082 859662 525
591921 619035 447
641656 79977 509
135942 196439 383
889264 574609 525
387050 600875 470
194215 410704 449
787474 736498 468
916418 645171 525
766469 183570 509
866557 672181 525
822906 121766 509
419447 815858 509
705941 14321 509
14850 316724 443
31773 916209 525
609145 504939 470
838725 148109 525
430648 68144 449
426743 257344 449
795702 93425 509
104017 433211 449
319470 14736 443
693511 531941 509
241697 95627 443
786577 204057 509
127084 513410 470
147396 861689 525
260365 344928 407
